[gd_scene load_steps=2 format=2]

[ext_resource path="res://scripts/ui/mob_container.gd" type="Script" id=1]

[node name="MobContainer" type="HBoxContainer"]

anchor_left = 0.0
anchor_top = 0.0
anchor_right = 0.0
anchor_bottom = 0.0
margin_right = 60.0
margin_bottom = 47.0
rect_pivot_offset = Vector2( 0, 0 )
mouse_filter = 1
mouse_default_cursor_shape = 0
size_flags_horizontal = 3
size_flags_vertical = 1
alignment = 1
script = ExtResource( 1 )

[node name="VBoxContainer" type="VBoxContainer" parent="." index="0"]

anchor_left = 0.0
anchor_top = 0.0
anchor_right = 0.0
anchor_bottom = 0.0
margin_left = 30.0
margin_right = 30.0
margin_bottom = 47.0
rect_pivot_offset = Vector2( 0, 0 )
mouse_filter = 1
mouse_default_cursor_shape = 0
size_flags_horizontal = 1
size_flags_vertical = 1
alignment = 2

